[gd_scene load_steps=5 format=2]

[ext_resource path="res://scripts/hurdle.gd" type="Script" id=1]
[ext_resource path="res://sprites/hurdlepole.png" type="Texture" id=2]
[ext_resource path="res://scripts/hurdleTop.gd" type="Script" id=3]

[sub_resource type="RectangleShape2D" id=1]

custom_solver_bias = 0.0
extents = Vector2( 1, 10 )

[node name="Hurdle" type="Area2D" groups=[
"hurdle",
]]
input_pickable = true
gravity_vec = Vector2( 0, 1 )
gravity = 98.0
linear_damp = 0.1
angular_damp = 1.0
audio_bus_override = false
audio_bus_name = "Master"
script = ExtResource( 1 )

[node name="CollisionShape2D" type="CollisionShape2D" parent="."]
shape = SubResource( 1 )

[node name="pole1" type="Sprite" parent="."]
position = Vector2( 0, -2 )
texture = ExtResource( 2 )
centered = false
offset = Vector2( -3, -1 )

[node name="pole2" type="Sprite" parent="."]
position = Vector2( 0, -21 )
texture = ExtResource( 2 )
centered = false
offset = Vector2( -3, -1 )

[node name="Line2D" type="Line2D" parent="."]
points = PoolVector2Array( 0, -2, 0, -21 )
width = 2.0
default_color = Color( 1, 1, 1, 1 )
sharp_limit = 2.0
round_precision = 8
script = ExtResource( 3 )

[connection signal="body_entered" from="." to="." method="_on_Hurdle_body_entered"]
